  15.88%
E  9.52%
T  8.16%
O  6.81%
A  6.41%
I  5.93%
N  5.80%
S  5.69%
R  4.64%
C  3.51%
H  3.17%
P  3.05%
L  2.78%
D  2.75%
U  2.22%
M  1.96%
G  1.54%
W  1.32%
Y  1.28%
F  1.27%
B  1.19%
.  0.97%
,  0.92%
V  0.80%
’  0.55%
J  0.45%
K  0.41%
-  0.37%
X  0.23%
(  0.07%
)  0.07%
—  0.06%
Q  0.06%
Z  0.04%
4  0.03%
?  0.02%
1  0.01%
2  0.01%
3  0.01%
“  0.01%
”  0.01%
