2016-05-10 10:29:33,346 [DEBUG] DaoManager created dao for class class model.User with reflection
2016-05-10 10:29:33,359 [DEBUG] DaoManager created dao for class class model.Group with reflection
2016-05-10 10:29:33,361 [DEBUG] DaoManager created dao for class class model.User with reflection
2016-05-10 10:29:33,361 [DEBUG] DaoManager created dao for class class model.UserGroup with reflection
2016-05-10 10:29:33,362 [DEBUG] DaoManager created dao for class class model.User with reflection
2016-05-10 10:29:41,429 [DEBUG] JdbcConnectionSource opened connection to jdbc:sqlite:/Users/calmarj/db.sqlite got #804611486
2016-05-10 10:29:41,455 [DEBUG] BaseMappedStatement query-for-id using 'SELECT * FROM `user` WHERE `login` = ?' and 1 args, got no results
2016-05-10 10:29:44,074 [DEBUG] BaseMappedStatement query-for-id using 'SELECT * FROM `user` WHERE `login` = ?' and 1 args, got 1 result
2016-05-10 10:29:52,427 [DEBUG] StatementBuilder built statement SELECT COUNT(*) FROM `user` WHERE `login` = ? 
2016-05-10 10:29:52,432 [DEBUG] StatementExecutor query of 'SELECT COUNT(*) FROM `user` WHERE `login` = ? ' returned 0
2016-05-10 10:29:52,440 [DEBUG] BaseMappedStatement insert data with statement 'INSERT INTO `user` (`login` ,`password` ,`is_admin` ) VALUES (?,?,?)' and 3 args, changed 1 rows
